{
    "data": [
        {
            "id":"1",
            "orderNumber":"600000",
            "name":"Ralph Anderson",
            "address":"1816 101st Avenue SE",
            "city":"Wimbeldon",
            "state":"ND",
            "zipcode":"58492-9313",
            "date":"5/15/2013 13:33",
            "action":"View"
        },
        {
            "id":"2",
            "orderNumber":"600001",
            "name":"Jensen Builders ",
            "address":"29669 County Road 11",
            "city":"Wendell",
            "state":"MN",
            "zipcode":"56590",
            "date":"5/15/2013 13:47",
            "action":"View"
        },
        {
            "id":"3",
            "orderNumber":"600002",
            "name":"Roger Samuelson",
            "address":"34840 Big McDonald Lane",
            "city":"Dent",
            "state":"MN",
            "zipcode":"56528",
            "date":"5/15/2013 13:54",
            "action":"View"
        },
        {
            "id":"4",
            "orderNumber":"600003",
            "name":"Brian Arett",
            "address":"902 2nd Street South",
            "city":"Moorhead",
            "state":"MN",
            "zipcode":"56560",
            "date":"5/15/2013 14:09",
            "action":"View"
        },
        {
            "id":"5",
            "orderNumber":"600004",
            "name":"Twyla Ernst",
            "address":"203 4th Street",
            "city":"Edgeley",
            "state":"ND",
            "zipcode":"58433",
            "date":"5/15/2013 14:17",
            "action":"View"
        },
        {
            "id":"6",
            "orderNumber":"600005",
            "name":"Paul Harless",
            "address":"336 3rd Avenue East",
            "city":"Halstad",
            "state":"MN",
            "zipcode":"56548",
            "date":"5/15/2013 14:26",
            "action":"View"
        },
        {
            "id":"7",
            "orderNumber":"600006",
            "name":"Rod Hoffman",
            "address":"701 East Caledonia Avenue",
            "city":"Hillsboro",
            "state":"ND",
            "zipcode":"58045",
            "date":"5/15/2013 14:31",
            "action":"View"
        },
        {
            "id":"8",
            "orderNumber":"600007",
            "name":"Steve Wede",
            "address":"471 Highway 281 NE",
            "city":"Carrington",
            "state":"ND",
            "zipcode":"58421",
            "date":"5/15/2013 14:35",
            "action":"View"
        },
        {
            "id":"9",
            "orderNumber":"600008",
            "name":"Gene Wefel",
            "address":"17085 82nd Street SE",
            "city":"Whapeton",
            "state":"ND",
            "zipcode":"58075",
            "date":"5/15/2013 14:39",
            "action":"View"
        },
        {
            "id":"10",
            "orderNumber":"600009",
            "name":"Todd Evenson",
            "address":"35904 380th Avenue SW",
            "city":"Climax",
            "state":"MN",
            "zipcode":"56523",
            "date":"5/15/2013 14:43",
            "action":"View"
        },
        {
            "id":"11",
            "orderNumber":"600010",
            "name":"Bill Streifel",
            "address":"6248 39th Street NE",
            "city":"Oberon",
            "state":"ND",
            "zipcode":"58357",
            "date":"5/15/2013 14:53",
            "action":"View"
        },
        {
            "id":"12",
            "orderNumber":"600011",
            "name":"Jeff Reveling",
            "address":"420 Southwood Drive",
            "city":"Horace",
            "state":"ND",
            "zipcode":"58047",
            "date":"5/15/2013 14:56",
            "action":"View"
        },
        {
            "id":"13",
            "orderNumber":"600012",
            "name":"Dennis Forward",
            "address":"10601 93rd Street SE",
            "city":"Oakes",
            "state":"ND",
            "zipcode":"58474-9446",
            "date":"5/15/2013 14:59",
            "action":"View"
        },
        {
            "id":"14",
            "orderNumber":"600013",
            "name":"Chad Wendell",
            "address":"3606 104th Avenue SE",
            "city":"Sanborn",
            "state":"ND",
            "zipcode":"58480",
            "date":"5/15/2013 15:06",
            "action":"View"
        },
        {
            "id":"15",
            "orderNumber":"600014",
            "name":"Ralph Schmidt",
            "address":"12158 Bia Highway 700",
            "city":"Sisseton",
            "state":"SD",
            "zipcode":"57262",
            "date":"5/30/2013 15:07",
            "action":"View"
        },
        {
            "id":"16",
            "orderNumber":"600015",
            "name":"Chuck Towner & Tim Fearing ",
            "address":"3501 Marina Road NW",
            "city":"Alexandria",
            "state":"MN",
            "zipcode":"56308",
            "date":"5/30/2013 15:16",
            "action":"View"
        },
        {
            "id":"17",
            "orderNumber":"600016",
            "name":"Gary Baumeister",
            "address":"7101 Woodland Circle",
            "city":"Horace",
            "state":"ND",
            "zipcode":"58047",
            "date":"5/30/2013 15:26",
            "action":"View"
        },
        {
            "id":"18",
            "orderNumber":"600017",
            "name":"Kris Satrom",
            "address":"1193 139th Avenue SE",
            "city":"Page",
            "state":"ND",
            "zipcode":"58064",
            "date":"5/30/2013 15:35",
            "action":"View"
        },
        {
            "id":"19",
            "orderNumber":"600018",
            "name":"Harry Wadnizak",
            "address":"1110 Oak Street North",
            "city":"Fargo",
            "state":"ND",
            "zipcode":"58102-3850",
            "date":"5/30/2013 16:07",
            "action":"View"
        },
        {
            "id":"20",
            "orderNumber":"600019",
            "name":"Dean Volness",
            "address":"730 1st Street North",
            "city":"Fargo",
            "state":"ND",
            "zipcode":"58102",
            "date":"5/30/2013 16:15",
            "action":"View"
        },
        {
            "id":"21",
            "orderNumber":"600020",
            "name":"Matt Alm",
            "address":"2791 Samuel Drive South",
            "city":"Fargo",
            "state":"ND",
            "zipcode":"58104",
            "date":"5/30/2013 16:19",
            "action":"View"
        },
        {
            "id":"22",
            "orderNumber":"600021",
            "name":"Dennis Thompson",
            "address":"401 Forest Avenue North",
            "city":"Fargo",
            "state":"ND",
            "zipcode":"58102",
            "date":"5/30/2013 16:22",
            "action":"View"
        },
        {
            "id":"23",
            "orderNumber":"600022",
            "name":"Robert Haskell",
            "address":"1819 26 1/2 Avenue South",
            "city":"Fargo",
            "state":"ND",
            "zipcode":"58104",
            "date":"5/30/2013 16:24",
            "action":"View"
        },
        {
            "id":"24",
            "orderNumber":"600023",
            "name":"Ross Warner",
            "address":"208 Cottonwood Drive",
            "city":"Casselton",
            "state":"ND",
            "zipcode":"58012",
            "date":"5/30/2013 16:28",
            "action":"View"
        },
        {
            "id":"25",
            "orderNumber":"600024",
            "name":"Richard Anderson",
            "address":"4306 43rd Avenue South",
            "city":"Fargo",
            "state":"ND",
            "zipcode":"58104",
            "date":"5/30/2013 16:32",
            "action":"View"
        },
        {
            "id":"26",
            "orderNumber":"600025",
            "name":"Joshua Bach",
            "address":"3101 Par Street North",
            "city":"Fargo",
            "state":"ND",
            "zipcode":"58102",
            "date":"5/30/2013 16:36",
            "action":"View"
        },
        {
            "id":"27",
            "orderNumber":"600026",
            "name":"Chris Pierce",
            "address":"3427 River Drive South",
            "city":"Fargo",
            "state":"ND",
            "zipcode":"58104-6214",
            "date":"5/30/2013 16:40",
            "action":"View"
        },
        {
            "id":"28",
            "orderNumber":"600027",
            "name":"Perry Burnside",
            "address":"22110 40th Avenue South",
            "city":"Hawley",
            "state":"MN",
            "zipcode":"56549",
            "date":"6/5/2013 14:15",
            "action":"View"
        },
        {
            "id":"29",
            "orderNumber":"600028",
            "name":"Richard Jones",
            "address":"16817 17th Street SE",
            "city":"Gardner",
            "state":"ND",
            "zipcode":"58036",
            "date":"6/19/2013 9:35",
            "action":"View"
        },
        {
            "id":"30",
            "orderNumber":"600029",
            "name":"Jack Marcil",
            "address":"2908 26th Avenue SW",
            "city":"Fargo",
            "state":"ND",
            "zipcode":"58103",
            "date":"6/19/2013 14:49",
            "action":"View"
        },
        {
            "id":"31",
            "orderNumber":"600030",
            "name":"Nereida Woody",
            "address":"1431 7th Street SE",
            "city":"Wadena",
            "state":"MN",
            "zipcode":"56482-2541",
            "date":"6/19/2013 14:55",
            "action":"View"
        },
        {
            "id":"32",
            "orderNumber":"600031",
            "name":"Paul Sather",
            "address":"34254 Camp Cherith Road",
            "city":"Frazee",
            "state":"MN",
            "zipcode":"56544",
            "date":"6/19/2013 15:07",
            "action":"View"
        },
        {
            "id":"33",
            "orderNumber":"600032",
            "name":"Brad Olstad",
            "address":"25415 Englewood Drive",
            "city":"Detroit Lakes",
            "state":"MN",
            "zipcode":"56501",
            "date":"6/19/2013 15:18",
            "action":"View"
        },
        {
            "id":"34",
            "orderNumber":"600033",
            "name":"Monty Zimmer",
            "address":"801 Chestnut Circle",
            "city":"Oakes",
            "state":"ND",
            "zipcode":"58474",
            "date":"6/19/2013 15:38",
            "action":"View"
        },
        {
            "id":"35",
            "orderNumber":"600034",
            "name":"Tod Vipond",
            "address":"19370 300th Avenue",
            "city":"Norcross",
            "state":"MN",
            "zipcode":"56274",
            "date":"6/19/2013 15:43",
            "action":"View"
        },
        {
            "id":"36",
            "orderNumber":"600035",
            "name":"Marcia Shannon",
            "address":"1101 Summit Avenue",
            "city":"Detroit Lakes",
            "state":"MN",
            "zipcode":"56501",
            "date":"6/20/2013 13:30",
            "action":"View"
        },
        {
            "id":"37",
            "orderNumber":"600036",
            "name":"Steve Dahlstrom",
            "address":"913 Main Avenue",
            "city":"Oakes",
            "state":"ND",
            "zipcode":"58474",
            "date":"6/20/2013 13:40",
            "action":"View"
        },
        {
            "id":"38",
            "orderNumber":"600037",
            "name":"Tim Zerr",
            "address":"1815 3rd Street North",
            "city":"Fargo",
            "state":"ND",
            "zipcode":"58102",
            "date":"6/20/2013 14:00",
            "action":"View"
        },
        {
            "id":"39",
            "orderNumber":"600038",
            "name":"Mary Mott",
            "address":"15309 360th Avenue",
            "city":"Frazee",
            "state":"MN",
            "zipcode":"56544",
            "date":"6/20/2013 14:03",
            "action":"View"
        },
        {
            "id":"40",
            "orderNumber":"600039",
            "name":"Stephen Andrews",
            "address":"15247 County Hwy 19",
            "city":"Detroit Lakes",
            "state":"MN",
            "zipcode":"56501-7124",
            "date":"6/20/2013 14:06",
            "action":"View"
        },
        {
            "id":"41",
            "orderNumber":"600040",
            "name":"Paul Florell",
            "address":"920 Lake Street",
            "city":"Alexandria",
            "state":"MN",
            "zipcode":"56308",
            "date":"6/20/2013 14:11",
            "action":"View"
        },
        {
            "id":"42",
            "orderNumber":"600041",
            "name":"Jay Vagts",
            "address":"2178 State Hwy 210",
            "city":"Breckenridge",
            "state":"MN",
            "zipcode":"56520-9755",
            "date":"6/20/2013 14:15",
            "action":"View"
        },
        {
            "id":"43",
            "orderNumber":"600042",
            "name":"Robert Schroedl",
            "address":"111 Turnagain Court",
            "city":"Glenwood",
            "state":"MN",
            "zipcode":"56334",
            "date":"6/20/2013 14:19",
            "action":"View"
        },
        {
            "id":"44",
            "orderNumber":"600043",
            "name":"Connie Sanders",
            "address":"37861 County Highway 34",
            "city":"Perham",
            "state":"MN",
            "zipcode":"56573-8614",
            "date":"6/21/2013 9:31",
            "action":"View"
        },
        {
            "id":"45",
            "orderNumber":"600044",
            "name":"Mark Law",
            "address":"901 Woodsmen Court NE",
            "city":"Alexandria",
            "state":"MN",
            "zipcode":"56308",
            "date":"6/21/2013 9:36",
            "action":"View"
        },
        {
            "id":"46",
            "orderNumber":"600045",
            "name":"Perhus Farm ",
            "address":"16611 54th Street SE",
            "city":"Kindred",
            "state":"ND",
            "zipcode":"58051",
            "date":"6/21/2013 9:42",
            "action":"View"
        },
        {
            "id":"47",
            "orderNumber":"600046",
            "name":"Roger Carmody",
            "address":"822 S. Arthur Street",
            "city":"Fergus Falls",
            "state":"MN",
            "zipcode":"56537",
            "date":"6/21/2013 9:46",
            "action":"View"
        },
        {
            "id":"48",
            "orderNumber":"600047",
            "name":"Robert Brostrom",
            "address":"47677 County Highway 19",
            "city":"Sebeka",
            "state":"MN",
            "zipcode":"56477",
            "date":"6/21/2013 9:50",
            "action":"View"
        },
        {
            "id":"49",
            "orderNumber":"600048",
            "name":"Barry Hanson",
            "address":"2213 5th Avenue South",
            "city":"Fargo",
            "state":"ND",
            "zipcode":"58103",
            "date":"6/21/2013 9:54",
            "action":"View"
        },
        {
            "id":"50",
            "orderNumber":"600049",
            "name":"Richard Brecto",
            "address":"13372 E. Big Cormorant Road",
            "city":"Audubon",
            "state":"MN",
            "zipcode":"56511-9786",
            "date":"6/21/2013 9:59",
            "action":"View"
        },
        {
            "id":"51",
            "orderNumber":"600050",
            "name":"Lawrence Johnson",
            "address":"3421 West Lake Jessie Drive SE",
            "city":"Alexandria",
            "state":"MN",
            "zipcode":"56308-7901",
            "date":"6/21/2013 10:03",
            "action":"View"
        },
        {
            "id":"52",
            "orderNumber":"600051",
            "name":"Duane Noraker",
            "address":"3548 Taylor Street S",
            "city":"Fargo",
            "state":"ND",
            "zipcode":"58104",
            "date":"6/21/2013 10:10",
            "action":"View"
        },
        {
            "id":"53",
            "orderNumber":"600052",
            "name":"Lee Ann Ormand",
            "address":"319 5th Street",
            "city":"Milnor",
            "state":"ND",
            "zipcode":"58060",
            "date":"6/21/2013 10:17",
            "action":"View"
        },
        {
            "id":"54",
            "orderNumber":"600053",
            "name":"Gene Gossett",
            "address":"419 16th Street NE",
            "city":"Jamestown",
            "state":"ND",
            "zipcode":"58401",
            "date":"6/21/2013 10:24",
            "action":"View"
        },
        {
            "id":"55",
            "orderNumber":"600054",
            "name":"Mark Gubrud",
            "address":"701 Main Street",
            "city":"Buffalo",
            "state":"ND",
            "zipcode":"58011",
            "date":"6/21/2013 11:36",
            "action":"View"
        },
        {
            "id":"56",
            "orderNumber":"600055",
            "name":"Sandy Mahler",
            "address":"102 3rd Street North",
            "city":"Fairmount",
            "state":"ND",
            "zipcode":"58030",
            "date":"6/21/2013 11:40",
            "action":"View"
        },
        {
            "id":"57",
            "orderNumber":"600056",
            "name":"Tim Kozojed",
            "address":"309 162nd Avenue SE",
            "city":"Hillsboro",
            "state":"ND",
            "zipcode":"58045",
            "date":"6/21/2013 11:47",
            "action":"View"
        },
        {
            "id":"58",
            "orderNumber":"600057",
            "name":"Rich Schmit",
            "address":"2838 Lilac Lane",
            "city":"Fargo",
            "state":"ND",
            "zipcode":"58102",
            "date":"6/21/2013 11:58",
            "action":"View"
        },
        {
            "id":"59",
            "orderNumber":"600058",
            "name":"Leland Niemann",
            "address":"2614 24th Avenue SW",
            "city":"Fargo",
            "state":"ND",
            "zipcode":"58103",
            "date":"6/21/2013 12:08",
            "action":"View"
        },
        {
            "id":"60",
            "orderNumber":"600059",
            "name":"Richard Haaland",
            "address":"1908 19th Street S",
            "city":"Fargo",
            "state":"ND",
            "zipcode":"58103",
            "date":"6/21/2013 12:27",
            "action":"View"
        },
        {
            "id":"61",
            "orderNumber":"600060",
            "name":"Kasowski & Gubrud Repair ",
            "address":"3406 139th Avenue SE",
            "city":"Buffalo",
            "state":"ND",
            "zipcode":"58011",
            "date":"6/21/2013 12:31",
            "action":"View"
        },
        {
            "id":"62",
            "orderNumber":"600061",
            "name":"Dean Sternhagen",
            "address":"18796 190th Street",
            "city":"Barrett",
            "state":"MN",
            "zipcode":"56311",
            "date":"6/21/2013 12:36",
            "action":"View"
        },
        {
            "id":"63",
            "orderNumber":"600062",
            "name":"Galleria II ",
            "address":"1621 34th Street South",
            "city":"Fargo",
            "state":"ND",
            "zipcode":"58103",
            "date":"6/21/2013 12:42",
            "action":"View"
        },
        {
            "id":"64",
            "orderNumber":"600063",
            "name":"Alan Rotenberger",
            "address":"13982 Hwy 27",
            "city":"Lisbon",
            "state":"ND",
            "zipcode":"58054",
            "date":"6/21/2013 12:59",
            "action":"View"
        },
        {
            "id":"65",
            "orderNumber":"600064",
            "name":"St. Joseph's Catholic Church ",
            "address":"218 10th Street South",
            "city":"Moorhead",
            "state":"MN",
            "zipcode":"56560",
            "date":"6/27/2013 12:14",
            "action":"View"
        },
        {
            "id":"66",
            "orderNumber":"600065",
            "name":"Scott Eckert",
            "address":"1634 1st Street N",
            "city":"Fargo",
            "state":"ND",
            "zipcode":"58102",
            "date":"6/27/2013 12:27",
            "action":"View"
        },
        {
            "id":"67",
            "orderNumber":"600066",
            "name":"Jon Bronken",
            "address":"2217 8th Street North",
            "city":"Fargo",
            "state":"ND",
            "zipcode":"58102",
            "date":"6/27/2013 12:30",
            "action":"View"
        },
        {
            "id":"68",
            "orderNumber":"600067",
            "name":"Page Meadows Apartments ",
            "address":"925 Page Drive",
            "city":"Fargo",
            "state":"ND",
            "zipcode":"58103",
            "date":"6/27/2013 12:35",
            "action":"View"
        },
        {
            "id":"69",
            "orderNumber":"600068",
            "name":"John Doe",
            "address":"123 55th Avenue West",
            "city":"Fargo",
            "state":"ND",
            "zipcode":"58104",
            "date":"7/8/2013 14:40",
            "action":"View"
        },
        {
            "id":"70",
            "orderNumber":"600069",
            "name":"Todd Chan",
            "address":"12313 Forada Beach Road SE",
            "city":"Alexandria",
            "state":"MN",
            "zipcode":"56308",
            "date":"7/16/2013 14:45",
            "action":"View"
        },
        {
            "id":"71",
            "orderNumber":"600070",
            "name":"Leslie Herbranson",
            "address":"1042 14th Street North",
            "city":"Fargo",
            "state":"ND",
            "zipcode":"58102",
            "date":"7/17/2013 16:40",
            "action":"View"
        },
        {
            "id":"72",
            "orderNumber":"600071",
            "name":"Aruthur Beckman",
            "address":"1437 8th Avenue South",
            "city":"Fargo",
            "state":"ND",
            "zipcode":"58103",
            "date":"7/17/2013 16:44",
            "action":"View"
        },
        {
            "id":"73",
            "orderNumber":"600072",
            "name":"Mark Craig",
            "address":"421 North Shore Drive",
            "city":"Detroit Lakes",
            "state":"MN",
            "zipcode":"56501",
            "date":"7/17/2013 16:46",
            "action":"View"
        },
        {
            "id":"74",
            "orderNumber":"600073",
            "name":"Lee Kvam",
            "address":"4105 Furnberg Place South",
            "city":"Fargo",
            "state":"ND",
            "zipcode":"58104",
            "date":"7/17/2013 16:49",
            "action":"View"
        },
        {
            "id":"75",
            "orderNumber":"600074",
            "name":"Roddies Storage ",
            "address":"675 2nd Avenue NW",
            "city":"West Fargo",
            "state":"ND",
            "zipcode":"58078",
            "date":"7/17/2013 16:51",
            "action":"View"
        },
        {
            "id":"76",
            "orderNumber":"600075",
            "name":"Dakota Ag ",
            "address":"228 Chapin Drive",
            "city":"Harwood",
            "state":"ND",
            "zipcode":"58042",
            "date":"7/17/2013 16:53",
            "action":"View"
        },
        {
            "id":"77",
            "orderNumber":"600076",
            "name":"Kelly Skaurud",
            "address":"4484 State Highway 200",
            "city":"Gary",
            "state":"MN",
            "zipcode":"56545",
            "date":"7/18/2013 10:50",
            "action":"View"
        },
        {
            "id":"78",
            "orderNumber":"600077",
            "name":"Elevator ",
            "address":"312 1st Street SW",
            "city":"Pelican Rapids",
            "state":"MN",
            "zipcode":"56572",
            "date":"7/18/2013 10:52",
            "action":"View"
        },
        {
            "id":"79",
            "orderNumber":"600078",
            "name":"Jeff Barnes",
            "address":"3298 151st Avenue SE",
            "city":"Wheatland",
            "state":"ND",
            "zipcode":"58079",
            "date":"7/18/2013 10:54",
            "action":"View"
        },
        {
            "id":"80",
            "orderNumber":"600079",
            "name":"Jay Olson",
            "address":"1020 West Lincoln Avenue",
            "city":"Fergus Falls",
            "state":"MN",
            "zipcode":"56537",
            "date":"7/18/2013 10:56",
            "action":"View"
        },
        {
            "id":"81",
            "orderNumber":"600080",
            "name":"Jim Fuka",
            "address":"210 1st Avenue NE",
            "city":"Hankinson",
            "state":"ND",
            "zipcode":"58041-4010",
            "date":"7/18/2013 10:58",
            "action":"View"
        },
        {
            "id":"82",
            "orderNumber":"600081",
            "name":"Bob Johnson",
            "address":"306 East Chippewa Street",
            "city":"Cyrus",
            "state":"MN",
            "zipcode":"56323",
            "date":"7/18/2013 11:06",
            "action":"View"
        },
        {
            "id":"83",
            "orderNumber":"600082",
            "name":"Larry Smith",
            "address":"2843 Maple Street North",
            "city":"Fargo",
            "state":"ND",
            "zipcode":"58102",
            "date":"7/18/2013 11:08",
            "action":"View"
        },
        {
            "id":"84",
            "orderNumber":"600083",
            "name":"John (Bruce) Larson",
            "address":"18505 Quartz Road",
            "city":"Clitherall",
            "state":"MN",
            "zipcode":"56524",
            "date":"7/18/2013 11:10",
            "action":"View"
        },
        {
            "id":"85",
            "orderNumber":"600084",
            "name":"Alice Johnson",
            "address":"40871 Kliens Drive",
            "city":"Perham",
            "state":"MN",
            "zipcode":"56573",
            "date":"7/18/2013 11:13",
            "action":"View"
        },
        {
            "id":"86",
            "orderNumber":"600085",
            "name":"Leisha Torgerson",
            "address":"220 East Channing Avenue",
            "city":"Fergus Falls",
            "state":"MN",
            "zipcode":"56537",
            "date":"7/18/2013 11:15",
            "action":"View"
        },
        {
            "id":"87",
            "orderNumber":"600086",
            "name":"Harlan (Kip) Nelson",
            "address":"26445 County Road 10",
            "city":"Elbow Lake",
            "state":"MN",
            "zipcode":"56531",
            "date":"7/18/2013 11:41",
            "action":"View"
        },
        {
            "id":"88",
            "orderNumber":"600087",
            "name":"Shirley Hintermeister",
            "address":"421 Main Street West",
            "city":"Detroit Lakes",
            "state":"MN",
            "zipcode":"56501",
            "date":"7/18/2013 11:43",
            "action":"View"
        },
        {
            "id":"89",
            "orderNumber":"600088",
            "name":"James Tyvand",
            "address":"508 7th Street North",
            "city":"Breckenridge",
            "state":"MN",
            "zipcode":"56520",
            "date":"7/18/2013 11:48",
            "action":"View"
        },
        {
            "id":"90",
            "orderNumber":"600089",
            "name":"Kelly Skaurud",
            "address":"4484 State Highway 200",
            "city":"Gary",
            "state":"MN",
            "zipcode":"56545",
            "date":"7/18/2013 11:52",
            "action":"View"
        },
        {
            "id":"91",
            "orderNumber":"600090",
            "name":"Colleen Heimstead",
            "address":"1910 7th Street North",
            "city":"Fargo",
            "state":"ND",
            "zipcode":"58102",
            "date":"7/18/2013 11:54",
            "action":"View"
        },
        {
            "id":"92",
            "orderNumber":"600091",
            "name":"At Cherry Condos ",
            "address":"3235 Cherry Lane North",
            "city":"Fargo",
            "state":"ND",
            "zipcode":"58102",
            "date":"7/18/2013 11:56",
            "action":"View"
        },
        {
            "id":"93",
            "orderNumber":"600092",
            "name":"Jerald Ernst",
            "address":"8151 79th Street SE",
            "city":"Merricourt",
            "state":"ND",
            "zipcode":"58433-9433",
            "date":"7/18/2013 12:04",
            "action":"View"
        },
        {
            "id":"94",
            "orderNumber":"600093",
            "name":"Raymond Kotchian",
            "address":"3002 38 1/2 Avenue South",
            "city":"Fargo",
            "state":"ND",
            "zipcode":"58104",
            "date":"7/18/2013 12:07",
            "action":"View"
        },
        {
            "id":"95",
            "orderNumber":"600094",
            "name":"Paul Davis Restoration ",
            "address":"3117 8th Street North",
            "city":"Fargo",
            "state":"ND",
            "zipcode":"58102",
            "date":"7/18/2013 12:09",
            "action":"View"
        },
        {
            "id":"96",
            "orderNumber":"600095",
            "name":"Sherwood Peterson",
            "address":"10632 80th Avenue South",
            "city":"Sabin",
            "state":"MN",
            "zipcode":"56580",
            "date":"7/18/2013 12:12",
            "action":"View"
        },
        {
            "id":"97",
            "orderNumber":"600096",
            "name":"Lawrence Goehring",
            "address":"103 3rd Avenue",
            "city":"Edgeley",
            "state":"ND",
            "zipcode":"58433",
            "date":"7/18/2013 12:16",
            "action":"View"
        },
        {
            "id":"98",
            "orderNumber":"600097",
            "name":"Burton Rockstad",
            "address":"2045 210th Avenue",
            "city":"Ada",
            "state":"MN",
            "zipcode":"56510-9129",
            "date":"7/18/2013 12:20",
            "action":"View"
        },
        {
            "id":"99",
            "orderNumber":"600098",
            "name":"Foltz Building Inc. ",
            "address":"24351 Highway 10 West",
            "city":"Detroit Lakes",
            "state":"MN",
            "zipcode":"56501",
            "date":"7/19/2013 14:38",
            "action":"View"
        },
        {
            "id":"100",
            "orderNumber":"600099",
            "name":"E-Z One Stop ",
            "address":"3194 US Highway 59",
            "city":"Waubun",
            "state":"MN",
            "zipcode":"56589",
            "date":"7/19/2013 14:41",
            "action":"View"
        }
    ]
}
